<define-tag pagetitle>DSA-4852-1 openvswitch</define-tag>
<define-tag report_date>2021-2-15</define-tag>
<define-tag secrefs>CVE-2020-35498 Bug#982493</define-tag>
<define-tag packages>openvswitch</define-tag>
<define-tag isvulnerable>yes</define-tag>
<define-tag fixed>yes</define-tag>
<define-tag fixed-section>no</define-tag>

#use wml::debian::security



</dl>
