<define-tag pagetitle>DSA-4650-1 qbittorrent</define-tag>
<define-tag report_date>2020-4-02</define-tag>
<define-tag secrefs>CVE-2019-13640 Bug#932539</define-tag>
<define-tag packages>qbittorrent</define-tag>
<define-tag isvulnerable>yes</define-tag>
<define-tag fixed>yes</define-tag>
<define-tag fixed-section>no</define-tag>

#use wml::debian::security



</dl>
