<define-tag pagetitle>DLA-2873-1 aria2</define-tag>
<define-tag report_date>2021-12-31</define-tag>
<define-tag secrefs>CVE-2019-3500 Bug#918058</define-tag>
<define-tag packages>aria2</define-tag>
<define-tag isvulnerable>yes</define-tag>
<define-tag fixed>yes</define-tag>
<define-tag fixed-section>no</define-tag>

#use wml::debian::security

