<define-tag pagetitle>DLA-992-1 eglibc</define-tag>
<define-tag report_date>2017-6-19</define-tag>
<define-tag secrefs>CVE-2017-1000366</define-tag>
<define-tag packages>eglibc</define-tag>
<define-tag isvulnerable>yes</define-tag>
<define-tag fixed>yes</define-tag>
<define-tag fixed-section>no</define-tag>

#use wml::debian::security

