<define-tag pagetitle>DLA-907-1 xen</define-tag>
<define-tag report_date>2017-4-21</define-tag>
<define-tag secrefs>CVE-2017-7228 Bug##859560</define-tag>
<define-tag packages>xen</define-tag>
<define-tag isvulnerable>yes</define-tag>
<define-tag fixed>yes</define-tag>
<define-tag fixed-section>no</define-tag>

#use wml::debian::security

