<define-tag pagetitle>DLA-890-1 ming</define-tag>
<define-tag report_date>2017-4-10</define-tag>
<define-tag secrefs>CVE-2017-7578</define-tag>
<define-tag packages>ming</define-tag>
<define-tag isvulnerable>yes</define-tag>
<define-tag fixed>yes</define-tag>
<define-tag fixed-section>no</define-tag>

#use wml::debian::security

