<define-tag pagetitle>DLA-2412-2 openjdk-8</define-tag>
<define-tag report_date>2020-12-22</define-tag>
<define-tag packages>openjdk-8</define-tag>
<define-tag isvulnerable>yes</define-tag>
<define-tag fixed>yes</define-tag>
<define-tag fixed-section>no</define-tag>

#use wml::debian::security

