<define-tag pagetitle>DLA-1419-1 ruby-sprockets</define-tag>
<define-tag report_date>2018-7-12</define-tag>
<define-tag secrefs>CVE-2018-3760 Bug##901913</define-tag>
<define-tag packages>ruby-sprockets</define-tag>
<define-tag isvulnerable>yes</define-tag>
<define-tag fixed>yes</define-tag>
<define-tag fixed-section>no</define-tag>

#use wml::debian::security

