<define-tag pagetitle>DLA-647-1 freeimage</define-tag>
<define-tag report_date>2016-10-6</define-tag>
<define-tag secrefs>CVE-2016-5684 Bug##839827</define-tag>
<define-tag packages>freeimage</define-tag>
<define-tag isvulnerable>yes</define-tag>
<define-tag fixed>yes</define-tag>
<define-tag fixed-section>no</define-tag>

#use wml::debian::security

